%YAML 1.1
%TAG !u! tag:unity3d.com,2011:
--- !u!64 &7788655774189855747
MeshCollider:
  m_ObjectHideFlags: 0
  m_CorrespondingSourceObject: {fileID: 0}
  m_PrefabInstance: {fileID: 0}
  m_PrefabAsset: {fileID: 0}
  m_GameObject: {fileID: 7005629395629680645}
  m_Material: {fileID: 0}
  m_IsTrigger: 0
  m_Enabled: 1
  serializedVersion: 3
  m_Convex: 0
  m_CookingOptions: -1
  m_Mesh: {fileID: 4300020, guid: 62cb00c3de504054a9f5b49b90684964, type: 3}
--- !u!1001 &7006508862298200511
PrefabInstance:
  m_ObjectHideFlags: 0
  serializedVersion: 2
  m_Modification:
    m_TransformParent: {fileID: 0}
    m_Modifications:
    - target: {fileID: 1372608438448570, guid: 6ffb2fcad2887ac498e047370ee91ac0, type: 3}
      propertyPath: m_Name
      value: Tree
      objectReference: {fileID: 0}
    - target: {fileID: 4377397589100856, guid: 6ffb2fcad2887ac498e047370ee91ac0, type: 3}
      propertyPath: m_LocalPosition.x
      value: 0
      objectReference: {fileID: 0}
    - target: {fileID: 4377397589100856, guid: 6ffb2fcad2887ac498e047370ee91ac0, type: 3}
      propertyPath: m_LocalPosition.y
      value: 0
      objectReference: {fileID: 0}
    - target: {fileID: 4377397589100856, guid: 6ffb2fcad2887ac498e047370ee91ac0, type: 3}
      propertyPath: m_LocalPosition.z
      value: 0
      objectReference: {fileID: 0}
    - target: {fileID: 4377397589100856, guid: 6ffb2fcad2887ac498e047370ee91ac0, type: 3}
      propertyPath: m_LocalRotation.x
      value: 0
      objectReference: {fileID: 0}
    - target: {fileID: 4377397589100856, guid: 6ffb2fcad2887ac498e047370ee91ac0, type: 3}
      propertyPath: m_LocalRotation.y
      value: -0
      objectReference: {fileID: 0}
    - target: {fileID: 4377397589100856, guid: 6ffb2fcad2887ac498e047370ee91ac0, type: 3}
      propertyPath: m_LocalRotation.z
      value: -0
      objectReference: {fileID: 0}
    - target: {fileID: 4377397589100856, guid: 6ffb2fcad2887ac498e047370ee91ac0, type: 3}
      propertyPath: m_LocalRotation.w
      value: 1
      objectReference: {fileID: 0}
    - target: {fileID: 4377397589100856, guid: 6ffb2fcad2887ac498e047370ee91ac0, type: 3}
      propertyPath: m_RootOrder
      value: 0
      objectReference: {fileID: 0}
    - target: {fileID: 4377397589100856, guid: 6ffb2fcad2887ac498e047370ee91ac0, type: 3}
      propertyPath: m_LocalEulerAnglesHint.x
      value: 0
      objectReference: {fileID: 0}
    - target: {fileID: 4377397589100856, guid: 6ffb2fcad2887ac498e047370ee91ac0, type: 3}
      propertyPath: m_LocalEulerAnglesHint.y
      value: 0
      objectReference: {fileID: 0}
    - target: {fileID: 4377397589100856, guid: 6ffb2fcad2887ac498e047370ee91ac0, type: 3}
      propertyPath: m_LocalEulerAnglesHint.z
      value: 0
      objectReference: {fileID: 0}
    - target: {fileID: 4377397589100856, guid: 6ffb2fcad2887ac498e047370ee91ac0, type: 3}
      propertyPath: m_LocalScale.x
      value: 5
      objectReference: {fileID: 0}
    - target: {fileID: 4377397589100856, guid: 6ffb2fcad2887ac498e047370ee91ac0, type: 3}
      propertyPath: m_LocalScale.y
      value: 5
      objectReference: {fileID: 0}
    - target: {fileID: 4377397589100856, guid: 6ffb2fcad2887ac498e047370ee91ac0, type: 3}
      propertyPath: m_LocalScale.z
      value: 5
      objectReference: {fileID: 0}
    m_RemovedComponents: []
  m_SourcePrefab: {fileID: 100100000, guid: 6ffb2fcad2887ac498e047370ee91ac0, type: 3}
--- !u!1 &7005629395629680645 stripped
GameObject:
  m_CorrespondingSourceObject: {fileID: 1372608438448570, guid: 6ffb2fcad2887ac498e047370ee91ac0,
    type: 3}
  m_PrefabInstance: {fileID: 7006508862298200511}
  m_PrefabAsset: {fileID: 0}
